{
  "options": {
    "dropEnabled": true,
    "footerPanelEnabled": true,
    "headerPanelEnabled": true,
    "leftPanelEnabled": true,
    "limitLocales": false,
    "overrideFullScreen": false,
    "pagingEnabled": true,
    "limitToRange": true,
    "manifestExclude": true,
    "rightPanelEnabled": true
  },
  "modules": {
    "headerPanel": {
      "options": {
        "localeToggleEnabled": false
      }
    },
    "avCenterPanel": {
      "options": {
        "enableFastRewind": true,
        "enableFastForward": true
      }
    },
    "shareDialogue": {
      "options": {
        "embedFile": "../media.html"
      }
    },
    "contentLeftPanel": {
      "options": {
        "defaultToTreeEnabled": true
      }
    }
  }
}
